{
  "contacts": [
    {
      "name": "sdsdds",
      "email": "fdafsvasd",
      "mobile": 2983674,
      "company": "JKAAK",
      "title": "IEKUEFE",
      "groupId": "colleagu",
      "id": 1
    }
  ],
  "groups": [
    {
      "id": "1",
      "name": "colleagu"
    },
    {
      "id": "2",
      "name": "colleagu"
    },
    {
      "id": "3",
      "name": "colleagu"
    },
    {
      "id": "4",
      "name": "friend"
    },
    {
      "id": "5",
      "name": "service"
    },
    {
      "id": "6",
      "name": "familly"
    }
  ]
}